{
  "project_info": {
    "project_number": "649101887822",
    "firebase_url": "https://jdarestaurant.firebaseio.com",
    "project_id": "jdarestaurant",
    "storage_bucket": "jdarestaurant.appspot.com"
  },
  "client": [
    {
      "client_info": {
        "mobilesdk_app_id": "1:649101887822:android:c1a32f3aed2b31e4",
        "android_client_info": {
          "package_name": "com.example.jcmilena.jdarestaurant"
        }
      },
      "oauth_client": [
        {
          "client_id": "649101887822-dlc7qfn4k2d86uk69sogcfmc2c627osa.apps.googleusercontent.com",
          "client_type": 1,
          "android_info": {
            "package_name": "com.example.jcmilena.jdarestaurant",
            "certificate_hash": "4553a3e45fe3f3cd5eaf5cd3e01a154b50a13649"
          }
        },
        {
          "client_id": "649101887822-t6c34vtdd4pfhec32jnofog7i2lj6qjp.apps.googleusercontent.com",
          "client_type": 3
        }
      ],
      "api_key": [
        {
          "current_key": "AIzaSyC44ep24IswmD04JGmaUSOgjp1MY7jApaY"
        }
      ],
      "services": {
        "analytics_service": {
          "status": 1
        },
        "appinvite_service": {
          "status": 2,
          "other_platform_oauth_client": [
            {
              "client_id": "649101887822-t6c34vtdd4pfhec32jnofog7i2lj6qjp.apps.googleusercontent.com",
              "client_type": 3
            }
          ]
        },
        "ads_service": {
          "status": 2
        }
      }
    }
  ],
  "configuration_version": "1"
}